%YAML 1.1
%TAG !u! tag:unity3d.com,2011:
--- !u!114 &11400000
MonoBehaviour:
  m_ObjectHideFlags: 0
  m_PrefabParentObject: {fileID: 0}
  m_PrefabInternal: {fileID: 0}
  m_GameObject: {fileID: 0}
  m_Enabled: 1
  m_EditorHideFlags: 0
  m_Script: {fileID: 11500000, guid: e55b5230fc598b941ad3cbe342dc7d54, type: 3}
  m_Name: 15
  m_EditorClassIdentifier: 
  _id: 15
  _name: 
  _description: 
  _energy: 1
  _level: 1
  _introText: 
  _adventureType: 0
  enemyList: []
  linkedMapList: []
