%YAML 1.1
%TAG !u! tag:unity3d.com,2011:
--- !u!114 &11400000
MonoBehaviour:
  m_ObjectHideFlags: 0
  m_PrefabParentObject: {fileID: 0}
  m_PrefabInternal: {fileID: 0}
  m_GameObject: {fileID: 0}
  m_Enabled: 1
  m_EditorHideFlags: 0
  m_Script: {fileID: 11500000, guid: 9415c1b9d40e2de428f3b2ce39bf8cef, type: 3}
  m_Name: "\uB808\uB4DC"
  m_EditorClassIdentifier: 
  _id: 10
  _name: "\uB808\uB4DC"
  _description: 
  _orderType: 0
  orderList:
  - {fileID: 11400000, guid: 5d89633046e17ad46b5713a0cb3cff7c, type: 2}
  - {fileID: 11400000, guid: ccc1b89a476d0ba4a8bfbff5da046eb6, type: 2}
  - {fileID: 11400000, guid: ac7cad351689dbb49a8d9c36dbdbfc7e, type: 2}
  - {fileID: 11400000, guid: 77feac32d720dd640a5607fcf47940f1, type: 2}
  - {fileID: 11400000, guid: d0af7395c7156f848ae25ebdf3387d7d, type: 2}
  - {fileID: 11400000, guid: 6fb1c212fc17db54fa25e96673524994, type: 2}
  - {fileID: 11400000, guid: 64075cea0d553b74e96d8265ab274a20, type: 2}
  - {fileID: 11400000, guid: d5edc43369defdd42b8c53953db0cdd6, type: 2}
  - {fileID: 11400000, guid: e5094f5becd483f4e9a1d779631a21dc, type: 2}
  - {fileID: 11400000, guid: 9ae7da6d2210a61488912111a32cc321, type: 2}
  - {fileID: 11400000, guid: db7b9fc6b66ba7b4a812dc2341e99e22, type: 2}
  - {fileID: 11400000, guid: c8a4bbacca912cf47a238a3a55765382, type: 2}
  - {fileID: 11400000, guid: c274098c575c6224a927ce485c4d6a18, type: 2}
  - {fileID: 11400000, guid: 88324e3d94066584bab249a9b56f0630, type: 2}
  - {fileID: 11400000, guid: c7cadbf808eb1f844961bc6765fe3ee0, type: 2}
  - {fileID: 11400000, guid: cb48b18e050237245b323f12105bbad3, type: 2}
  - {fileID: 11400000, guid: 202075e065fa50e41b1ad6b50bd1948a, type: 2}
  - {fileID: 11400000, guid: 6a4a32c55ce8ddb4d9b74b666eced8b7, type: 2}
  - {fileID: 11400000, guid: 8af2c7de08883bd4da46d19eb3fe7216, type: 2}
  - {fileID: 11400000, guid: ac5747800635f9343957a7063e0a57c9, type: 2}
  - {fileID: 11400000, guid: 4f9f2a22087dcde40af7e4f53d25c646, type: 2}
  - {fileID: 11400000, guid: e060647be52224144811e33c3e18de22, type: 2}
  - {fileID: 11400000, guid: b9696b8277cdb8649ab7d843acd9b634, type: 2}
  - {fileID: 11400000, guid: 4a74b500ba5ba7b49a5d56ea8dccab5f, type: 2}
