%YAML 1.1
%TAG !u! tag:unity3d.com,2011:
--- !u!114 &11400000
MonoBehaviour:
  m_ObjectHideFlags: 0
  m_PrefabParentObject: {fileID: 0}
  m_PrefabInternal: {fileID: 0}
  m_GameObject: {fileID: 0}
  m_Enabled: 1
  m_EditorHideFlags: 0
  m_Script: {fileID: 11500000, guid: 86943b6ba16000f4a840f2cc264d28e6, type: 3}
  m_Name: "\uC758\uC9C0\uC758"
  m_EditorClassIdentifier: 
  _id: 103
  _name: "\uC758\uC9C0\uC758"
  _description: 
  _affixType: 2
  _tier: 4
  status:
    _maxHealth: 10
    _damage: 10
    _defence: 10
    _attackSpeed: 1
    _criticalProbability: 0.5
    _criticalMuliplier: 1.5
