﻿ID,ScriptName,Name,Description,Type,Tier,AttackType,MaxHealth,Damage,Defence,AttackSpeed,CriticalProbability,CriticalMultiplier
0,삼나무,삼나무,,Decorate,1,-,10,10,10,1,0.5,1.5
1,전나무,전나무,,Decorate,2,-,10,10,10,1,0.5,1.5
2,소나무,소나무,,Decorate,3,-,10,10,10,1,0.5,1.5
3,대나무,대나무,,Decorate,4,-,10,10,10,1,0.5,1.5
4,고급 삼나무,고급 삼나무,,Decorate,4,-,10,10,10,1,0.5,1.5
5,고급 전나무,고급 전나무,,Decorate,4,-,10,10,10,1,0.5,1.5
6,고급 소나무,고급 소나무,,Decorate,4,-,10,10,10,1,0.5,1.5
7,고급 대나무,고급 대나무,,Decorate,4,-,10,10,10,1,0.5,1.5
8,벚나무,벚나무,,Decorate,4,-,10,10,10,1,0.5,1.5
9,적철,적철,,Decorate,4,-,10,10,10,1,0.5,1.5
10,한철,한철,,Decorate,4,-,10,10,10,1,0.5,1.5
11,강철,강철,,Decorate,4,-,10,10,10,1,0.5,1.5
12,미스릴,미스릴,,Decorate,4,-,10,10,10,1,0.5,1.5
13,루비,루비,,Decorate,4,-,10,10,10,1,0.5,1.5
14,에메랄드,에메랄드,,Decorate,4,-,10,10,10,1,0.5,1.5
15,사파이어,사파이어,,Decorate,4,-,10,10,10,1,0.5,1.5
16,토파즈,토파즈,,Decorate,4,-,10,10,10,1,0.5,1.5
17,다이아몬드,다이아몬드,,Decorate,4,-,10,10,10,1,0.5,1.5
18,얄팍한,얄팍한,,Craft,4,-,10,10,10,1,0.5,1.5
19,기지넘치는,기지넘치는,,Craft,4,-,10,10,10,1,0.5,1.5
20,날랜,날랜,,Craft,4,-,10,10,10,1,0.5,1.5
21,기괴한,기괴한,,Craft,4,-,10,10,10,1,0.5,1.5
22,무식한,무식한,,Craft,4,-,10,10,10,1,0.5,1.5
23,성난,성난,,Craft,4,-,10,10,10,1,0.5,1.5
24,후려갈기는,후려갈기는,,Craft,4,-,10,10,10,1,0.5,1.5
25,망쳐버린,망쳐버린,,Craft,4,-,10,10,10,1,0.5,1.5
26,재생하는,재생하는,,Craft,4,-,10,10,10,1,0.5,1.5
27,기운찬,기운찬,,Craft,4,-,10,10,10,1,0.5,1.5
28,느려터진,느려터진,,Craft,4,-,10,10,10,1,0.5,1.5
29,거대한,거대한,,Craft,4,-,10,10,10,1,0.5,1.5
30,짓밟는,짓밟는,,Craft,4,-,10,10,10,1,0.5,1.5
31,굳어있는,굳어있는,,Craft,4,-,10,10,10,1,0.5,1.5
32,단단한,단단한,,Craft,4,-,10,10,10,1,0.5,1.5
33,견고한,견고한,,Craft,4,-,10,10,10,1,0.5,1.5
34,부서지지 않는,부서지지 않는,,Craft,4,-,10,10,10,1,0.5,1.5
35,바스락거리는,바스락거리는,,Craft,4,-,10,10,10,1,0.5,1.5
36,덜덜거리는,덜덜거리는,,Craft,4,-,10,10,10,1,0.5,1.5
37,철컥대는,철컥대는,,Craft,4,-,10,10,10,1,0.5,1.5
38,쓸만한,쓸만한,,Craft,4,-,10,10,10,1,0.5,1.5
39,뒤집힌,뒤집힌,,Craft,4,-,10,10,10,1,0.5,1.5
40,할퀴는,할퀴는,,Craft,4,-,10,10,10,1,0.5,1.5
41,날카로운,날카로운,,Craft,4,-,10,10,10,1,0.5,1.5
42,잘 벼린,잘 벼린,,Craft,4,-,10,10,10,1,0.5,1.5
43,두꺼운,두꺼운,,Craft,4,-,10,10,10,1,0.5,1.5
44,절뚝이는,절뚝이는,,Craft,4,-,10,10,10,1,0.5,1.5
45,나아가는,나아가는,,Craft,4,-,10,10,10,1,0.5,1.5
46,도약하는,도약하는,,Craft,4,-,10,10,10,1,0.5,1.5
47,멀뚱한,멀뚱한,,Craft,4,-,10,10,10,1,0.5,1.5
48,험상궂은,험상궂은,,Craft,4,-,10,10,10,1,0.5,1.5
49,기똥찬,기똥찬,,Craft,4,-,10,10,10,1,0.5,1.5
50,우락부락한,우락부락한,,Craft,4,-,10,10,10,1,0.5,1.5
51,육중한,육중한,,Craft,4,-,10,10,10,1,0.5,1.5
52,무지막지한,무지막지한,,Craft,4,-,10,10,10,1,0.5,1.5
53,몰지각한,몰지각한,,Craft,4,-,10,10,10,1,0.5,1.5
54,물렁한,물렁한,,Craft,4,-,10,10,10,1,0.5,1.5
55,맨질맨질한,맨질맨질한,,Craft,4,-,10,10,10,1,0.5,1.5
56,매끈한,매끈한,,Craft,4,-,10,10,10,1,0.5,1.5
57,굳어버린,굳어버린,,Craft,4,-,10,10,10,1,0.5,1.5
58,탄탄한,탄탄한,,Craft,4,-,10,10,10,1,0.5,1.5
59,강고한,강고한,,Craft,4,-,10,10,10,1,0.5,1.5
60,부서질리 없는,부서질리 없는,,Craft,4,-,10,10,10,1,0.5,1.5
61,무모한,무모한,,Craft,4,-,10,10,10,1,0.5,1.5
62,날렵한,날렵한,,Craft,4,-,10,10,10,1,0.5,1.5
63,내리꽃는,내리꽃는,,Craft,4,-,10,10,10,1,0.5,1.5
64,관통하는,관통하는,,Craft,4,-,10,10,10,1,0.5,1.5
65,압도적인,압도적인,,Craft,4,-,10,10,10,1,0.5,1.5
66,저렴한,저렴한,,Craft,4,-,10,10,10,1,0.5,1.5
67,풍족한,풍족한,,Craft,4,-,10,10,10,1,0.5,1.5
68,부유한,부유한,,Craft,4,-,10,10,10,1,0.5,1.5
69,풍요로운,풍요로운,,Craft,4,-,10,10,10,1,0.5,1.5
70,흥청망청한,흥청망청한,,Craft,4,-,10,10,10,1,0.5,1.5
71,둔감한,둔감한,,Craft,4,-,10,10,10,1,0.5,1.5
72,묵중한,묵중한,,Craft,4,-,10,10,10,1,0.5,1.5
73,든든한,든든한,,Craft,4,-,10,10,10,1,0.5,1.5
74,믿음직한,믿음직한,,Craft,4,-,10,10,10,1,0.5,1.5
75,경이로운,경이로운,,Craft,4,-,10,10,10,1,0.5,1.5
76,애매한,애매한,,Craft,4,-,10,10,10,1,0.5,1.5
77,균형잡힌,균형잡힌,,Craft,4,-,10,10,10,1,0.5,1.5
78,걸출한,걸출한,,Craft,4,-,10,10,10,1,0.5,1.5
79,신적인,신적인,,Craft,4,-,10,10,10,1,0.5,1.5
80,몹쓸,몹쓸,,Craft,4,-,10,10,10,1,0.5,1.5
81,광적인,광적인,,Craft,4,-,10,10,10,1,0.5,1.5
82,패도적인,패도적인,,Craft,4,-,10,10,10,1,0.5,1.5
83,무자비한,무자비한,,Craft,4,-,10,10,10,1,0.5,1.5
84,가냘픈,가냘픈,,Craft,4,-,10,10,10,1,0.5,1.5
85,점진적인,점진적인,,Craft,4,-,10,10,10,1,0.5,1.5
86,몰아붙이는,몰아붙이는,,Craft,4,-,10,10,10,1,0.5,1.5
87,초월한,초월한,,Craft,4,-,10,10,10,1,0.5,1.5
88,거렁뱅이의,거렁뱅이의,,Engrave,4,-,10,10,10,1,0.5,1.5
89,혼수상태의,혼수상태의,,Engrave,4,-,10,10,10,1,0.5,1.5
90,난쟁이의,난쟁이의,,Engrave,4,-,10,10,10,1,0.5,1.5
91,혼란의,혼란의,,Engrave,4,-,10,10,10,1,0.5,1.5
92,한강의,한강의,,Engrave,4,-,10,10,10,1,0.5,1.5
93,빈털터리의,빈털터리의,,Engrave,4,-,10,10,10,1,0.5,1.5
94,빚쟁이의,빚쟁이의,,Engrave,4,-,10,10,10,1,0.5,1.5
95,악령의,악령의,,Engrave,4,-,10,10,10,1,0.5,1.5
96,무색무취의,무색무취의,,Engrave,4,-,10,10,10,1,0.5,1.5
97,일장일단의,일장일단의,,Engrave,4,-,10,10,10,1,0.5,1.5
98,일단일장의,일단일장의,,Engrave,4,-,10,10,10,1,0.5,1.5
99,시작의,시작의,,Engrave,4,-,10,10,10,1,0.5,1.5
100,준비의,준비의,,Engrave,4,-,10,10,10,1,0.5,1.5
101,자린고비의,자린고비의,,Engrave,4,-,10,10,10,1,0.5,1.5
102,도약의,도약의,,Engrave,4,-,10,10,10,1,0.5,1.5
103,의지의,의지의,,Engrave,4,-,10,10,10,1,0.5,1.5
104,위엄의,위엄의,,Engrave,4,-,10,10,10,1,0.5,1.5
105,뿌리의,뿌리의,,Engrave,4,-,10,10,10,1,0.5,1.5
106,상인의,상인의,,Engrave,4,-,10,10,10,1,0.5,1.5
107,철벽의,철벽의,,Engrave,4,-,10,10,10,1,0.5,1.5
108,질풍의,질풍의,,Engrave,4,-,10,10,10,1,0.5,1.5
109,공격의,공격의,,Engrave,4,-,10,10,10,1,0.5,1.5
110,방어의,방어의,,Engrave,4,-,10,10,10,1,0.5,1.5
111,상단의,상단의,,Engrave,4,-,10,10,10,1,0.5,1.5
112,철옹성의,철옹성의,,Engrave,4,-,10,10,10,1,0.5,1.5
113,광휘의,광휘의,,Engrave,4,-,10,10,10,1,0.5,1.5
114,광란의,광란의,,Engrave,4,-,10,10,10,1,0.5,1.5
115,망부석의,망부석의,,Engrave,4,-,10,10,10,1,0.5,1.5
116,암살의,암살의,,Engrave,4,-,10,10,10,1,0.5,1.5
117,수호의,수호의,,Engrave,4,-,10,10,10,1,0.5,1.5
118,거상의,거상의,,Engrave,4,-,10,10,10,1,0.5,1.5
119,키리오스의,키리오스의,,Engrave,4,-,10,10,10,1,0.5,1.5
120,아르네스의,아르네스의,,Engrave,4,-,10,10,10,1,0.5,1.5
121,하린의,하린의,,Engrave,4,-,10,10,10,1,0.5,1.5
122,에르킨의,에르킨의,,Engrave,4,-,10,10,10,1,0.5,1.5
123,네루의,네루의,,Engrave,4,-,10,10,10,1,0.5,1.5
124,크세르의,크세르의,,Engrave,4,-,10,10,10,1,0.5,1.5
125,전설의,전설의,,Engrave,4,-,10,10,10,1,0.5,1.5
126,불세출의,불세출의,,Engrave,4,-,10,10,10,1,0.5,1.5
