﻿ID,ScriptName,Name,AttackType,MaxHealth,Damage,Defence,AttackSpeed,CriticalProbability,CriticalMultiplier
0,고블린,고블린,-,23,5,5,1,0,1
1,고블린 궁수,고블린 궁수,-,23,5,0,1,0,1
2,고블린 전사,고블린 전사,-,23,5,0,1,0,1
3,고블린 마법사,고블린 마법사,-,23,5,0,1,0,1
4,고블린 족장,고블린 족장,-,23,5,0,1,0,1
5,스켈레톤,스켈레톤,-,23,5,0,1,0,1
6,그렘린,그렘린,-,23,5,0,1,0,1
7,오크,오크,-,23,5,0,1,0,1
8,오크 궁수,오크 궁수,-,23,5,0,1,0,1
9,오크 전사,오크 전사,-,23,5,0,1,0,1
10,오크 마법사,오크 마법사,-,23,5,0,1,0,1
11,오크 족장,오크 족장,-,23,5,0,1,0,1
12,방랑기사,방랑기사,-,23,5,0,1,0,1
13,트롤,트롤,-,23,5,0,1,0,1
14,트롤 투사,트롤 투사,-,23,5,0,1,0,1
15,트론 전사,트론 전사,-,23,5,0,1,0,1
16,트롤 마법사,트롤 마법사,-,23,5,0,1,0,1
17,트롤 광전사,트롤 광전사,-,23,5,0,1,0,1
18,트롤 변이체,트롤 변이체,-,23,5,0,1,0,1
19,가고일,가고일,-,23,5,0,1,0,1
20,방랑도적,방랑도적,-,23,5,0,1,0,1
21,오우거,오우거,-,23,5,0,1,0,1
22,트윈헤드 오우거,트윈헤드 오우거,-,23,5,0,1,0,1
23,코어 골렘,코어 골렘,-,23,5,0,1,0,1
24,텐타클,텐타클,-,23,5,0,1,0,1
25,변이 고블린,변이 고블린,-,23,5,0,1,0,1
26,변이 고블린 궁수,변이 고블린 궁수,-,23,5,0,1,0,1
27,변이 고블린 전사,변이 고블린 전사,-,23,5,0,1,0,1
28,변이 고블린 마법사,변이 고블린 마법사,-,23,5,0,1,0,1
29,변이 오크,변이 오크,-,23,5,0,1,0,1
30,변이 오크 궁수,변이 오크 궁수,-,23,5,0,1,0,1
31,변이 오크 전사,변이 오크 전사,-,23,5,0,1,0,1
32,변이 오크 마법사,변이 오크 마법사,-,23,5,0,1,0,1
33,변이 트롤,변이 트롤,-,23,5,0,1,0,1
34,변이 트롤 투사,변이 트롤 투사,-,23,5,0,1,0,1
35,변이 트롤 전사,변이 트롤 전사,-,23,5,0,1,0,1
36,변이 트롤 마법사,변이 트롤 마법사,-,23,5,0,1,0,1
37,변이 트롤 광전사,변이 트롤 광전사,-,23,5,0,1,0,1
38,베른의 망령,베른의 망령,-,23,5,0,1,0,1
39,변이 가고일,변이 가고일,-,23,5,0,1,0,1
40,변이체 - 베른,변이체 - 베른,-,23,5,0,1,0,1
41,고대 유적의 수호자 - 탄투스,고대 유적의 수호자 - 탄투스,-,23,5,0,1,0,1
42,타락한 방랑도적,타락한 방랑도적,-,23,5,0,1,0,1
43,타락한 방랑기사,타락한 방랑기사,-,23,5,0,1,0,1
