﻿ID,ScriptName,Name,Description,Icon,ItemType,RefinedType,MaxStack,BuyPrice,SellPrice,IsSellable,CanProduce,Frame,Ore,CanFight,AttackType,MaxHealth,Damage,Defence,AttackSpeed,CriticalProbability,CriticalMultiplier
0,삼나무 원목,삼나무 원목,삼나무 원목입니다.,,Material,Material_Decorate,9999,100,200,TRUE,FALSE,-,-,FALSE,-,-,-,-,-,-,-
1,전나무 원목,전나무 원목,전나무 원목입니다.,,Material,Material_Decorate,9999,100,200,TRUE,FALSE,-,-,FALSE,-,-,-,-,-,-,-
2,소나무 원목,소나무 원목,소나무 원목입니다.,,Material,Material_Decorate,9999,100,200,TRUE,FALSE,-,-,FALSE,-,-,-,-,-,-,-
3,대나무 원목,대나무 원목,대나무 원목입니다.,,Material,Material_Decorate,9999,100,200,TRUE,FALSE,-,-,FALSE,-,-,-,-,-,-,-
4,벚나무 원목,벚나무 원목,벚나무 원목입니다.,,Material,Material_Decorate,9999,100,200,TRUE,FALSE,-,-,FALSE,-,-,-,-,-,-,-
5,적철,적철,적철입니다.,,Material,Material_Decorate,9999,100,200,TRUE,FALSE,-,-,FALSE,-,-,-,-,-,-,-
6,한철,한철,한철입니다.,,Material,Material_Decorate,9999,100,200,TRUE,FALSE,-,-,FALSE,-,-,-,-,-,-,-
7,강철,강철,강철입니다.,,Material,Material_Decorate,9999,100,200,TRUE,FALSE,-,-,FALSE,-,-,-,-,-,-,-
8,현철,현철,현철입니다.,,Material,Material_Decorate,9999,100,200,TRUE,FALSE,-,-,FALSE,-,-,-,-,-,-,-
9,미스릴,미스릴,미스릴입니다.,,Material,Material_Decorate,9999,100,200,TRUE,FALSE,-,-,FALSE,-,-,-,-,-,-,-
10,루비,루비,루비입니다.,,Material,Material_Decorate,9999,100,200,TRUE,FALSE,-,-,FALSE,-,-,-,-,-,-,-
11,에메랄드,에메랄드,에메랄드입니다.,,Material,Material_Decorate,9999,100,200,TRUE,FALSE,-,-,FALSE,-,-,-,-,-,-,-
12,사파이어,사파이어,사파이어입니다.,,Material,Material_Decorate,9999,100,200,TRUE,FALSE,-,-,FALSE,-,-,-,-,-,-,-
13,토파즈,토파즈,토파즈입니다.,,Material,Material_Decorate,9999,100,200,TRUE,FALSE,-,-,FALSE,-,-,-,-,-,-,-
14,다이아몬드,다이아몬드,다이아몬드입니다.,,Material,Material_Decorate,9999,100,200,TRUE,FALSE,-,-,FALSE,-,-,-,-,-,-,-
15,고급 삼나무 원목,고급 삼나무 원목,고급 삼나무 원목입니다.,,Material,Material_Decorate,9999,100,200,TRUE,FALSE,-,-,FALSE,-,-,-,-,-,-,-
16,고급 전나무 원목,고급 전나무 원목,고급 전나무 원목입니다.,,Material,Material_Decorate,9999,100,200,TRUE,FALSE,-,-,FALSE,-,-,-,-,-,-,-
17,고급 소나무 원목,고급 소나무 원목,고급 소나무 원목입니다.,,Material,Material_Decorate,9999,100,200,TRUE,FALSE,-,-,FALSE,-,-,-,-,-,-,-
18,고급 대나무 원목,고급 대나무 원목,고급 대나무 원목입니다.,,Material,Material_Decorate,9999,100,200,TRUE,FALSE,-,-,FALSE,-,-,-,-,-,-,-
19,고블린 혈액,고블린 혈액,고블린 혈액입니다.,,Material,Material_Craft,9999,100,200,TRUE,FALSE,-,-,FALSE,-,-,-,-,-,-,-
20,오크 혈액,오크 혈액,오크 혈액입니다.,,Material,Material_Craft,9999,100,200,TRUE,FALSE,-,-,FALSE,-,-,-,-,-,-,-
21,트롤 혈액,트롤 혈액,트롤 혈액입니다.,,Material,Material_Craft,9999,100,200,TRUE,FALSE,-,-,FALSE,-,-,-,-,-,-,-
22,오우거 혈액,오우거 혈액,오우거 혈액입니다.,,Material,Material_Craft,9999,100,200,TRUE,FALSE,-,-,FALSE,-,-,-,-,-,-,-
23,가고일 혈액,가고일 혈액,가고일 혈액입니다.,,Material,Material_Craft,9999,100,200,TRUE,FALSE,-,-,FALSE,-,-,-,-,-,-,-
24,고블린 농축혈액,고블린 농축혈액,고블린 농축혈액입니다.,,Material,Material_Craft,9999,100,200,TRUE,FALSE,-,-,FALSE,-,-,-,-,-,-,-
25,오크 농축혈액,오크 농축혈액,오크 농축혈액입니다.,,Material,Material_Craft,9999,100,200,TRUE,FALSE,-,-,FALSE,-,-,-,-,-,-,-
26,트롤 농축혈액,트롤 농축혈액,트롤 농축혈액입니다.,,Material,Material_Craft,9999,100,200,TRUE,FALSE,-,-,FALSE,-,-,-,-,-,-,-
27,가고일 농축 혈액,가고일 농축 혈액,가고일 농축 혈액입니다.,,Material,Material_Craft,9999,100,200,TRUE,FALSE,-,-,FALSE,-,-,-,-,-,-,-
28,스켈레톤 잔해,스켈레톤 잔해,스켈레톤 잔해입니다.,,Material,Material_Craft,9999,100,200,TRUE,FALSE,-,-,FALSE,-,-,-,-,-,-,-
29,그렘린의 손톱,그렘린의 손톱,그렘린의 손톱입니다.,,Material,Material_Craft,9999,100,200,TRUE,FALSE,-,-,FALSE,-,-,-,-,-,-,-
30,오크의 정강이뼈,오크의 정강이뼈,오크의 정강이뼈입니다.,,Material,Material_Craft,9999,100,200,TRUE,FALSE,-,-,FALSE,-,-,-,-,-,-,-
31,트롤의 뿔,트롤의 뿔,트롤의 뿔입니다.,,Material,Material_Craft,9999,100,200,TRUE,FALSE,-,-,FALSE,-,-,-,-,-,-,-
32,오우거의 갈빗대,오우거의 갈빗대,오우거의 갈빗대입니다.,,Material,Material_Craft,9999,100,200,TRUE,FALSE,-,-,FALSE,-,-,-,-,-,-,-
33,스켈레톤 조각,스켈레톤 조각,스켈레톤 조각입니다.,,Material,Material_Craft,9999,100,200,TRUE,FALSE,-,-,FALSE,-,-,-,-,-,-,-
34,그렘린의 발톱,그렘린의 발톱,그렘린의 발톱입니다.,,Material,Material_Craft,9999,100,200,TRUE,FALSE,-,-,FALSE,-,-,-,-,-,-,-
35,오크의 대퇴골,오크의 대퇴골,오크의 대퇴골입니다.,,Material,Material_Craft,9999,100,200,TRUE,FALSE,-,-,FALSE,-,-,-,-,-,-,-
36,트롤의 거대뿔,트롤의 거대뿔,트롤의 거대뿔입니다.,,Material,Material_Craft,9999,100,200,TRUE,FALSE,-,-,FALSE,-,-,-,-,-,-,-
37,고블린 가죽,고블린 가죽,고블린 가죽입니다.,,Material,Material_Craft,9999,100,200,TRUE,FALSE,-,-,FALSE,-,-,-,-,-,-,-
38,고급 고블린 가죽,고급 고블린 가죽,고급 고블린 가죽입니다.,,Material,Material_Craft,9999,100,200,TRUE,FALSE,-,-,FALSE,-,-,-,-,-,-,-
39,가고일 가죽,가고일 가죽,가고일 가죽입니다.,,Material,Material_Craft,9999,100,200,TRUE,FALSE,-,-,FALSE,-,-,-,-,-,-,-
40,고급 가고일 가죽,고급 가고일 가죽,고급 가고일 가죽입니다.,,Material,Material_Craft,9999,100,200,TRUE,FALSE,-,-,FALSE,-,-,-,-,-,-,-
41,키리오스의 표식 도안 (하급),키리오스의 표식 도안 (하급),키리오스의 표식 도안 (하급)입니다.,,Material,Material_Craft,9999,100,200,TRUE,FALSE,-,-,FALSE,-,-,-,-,-,-,-
42,키리오스의 표식 도안 (상급),키리오스의 표식 도안 (상급),키리오스의 표식 도안 (상급)입니다.,,Material,Material_Craft,9999,100,200,TRUE,FALSE,-,-,FALSE,-,-,-,-,-,-,-
43,키리오스의 표식 도안 (최상급),키리오스의 표식 도안 (최상급),키리오스의 표식 도안 (최상급)입니다.,,Material,Material_Craft,9999,100,200,TRUE,FALSE,-,-,FALSE,-,-,-,-,-,-,-
44,아르네스의 표식 도안 (하급),아르네스의 표식 도안 (하급),아르네스의 표식 도안 (하급)입니다.,,Material,Material_Craft,9999,100,200,TRUE,FALSE,-,-,FALSE,-,-,-,-,-,-,-
45,아르네스의 표식 도안 (상급),아르네스의 표식 도안 (상급),아르네스의 표식 도안 (상급)입니다.,,Material,Material_Craft,9999,100,200,TRUE,FALSE,-,-,FALSE,-,-,-,-,-,-,-
46,아르네스의 표식 도안 (최상급),아르네스의 표식 도안 (최상급),아르네스의 표식 도안 (최상급)입니다.,,Material,Material_Craft,9999,100,200,TRUE,FALSE,-,-,FALSE,-,-,-,-,-,-,-
47,에르킨의 표식 도안 (하급),에르킨의 표식 도안 (하급),에르킨의 표식 도안 (하급)입니다.,,Material,Material_Craft,9999,100,200,TRUE,FALSE,-,-,FALSE,-,-,-,-,-,-,-
48,에르킨의 표식 도안 (상급),에르킨의 표식 도안 (상급),에르킨의 표식 도안 (상급)입니다.,,Material,Material_Craft,9999,100,200,TRUE,FALSE,-,-,FALSE,-,-,-,-,-,-,-
49,에르킨의 표식 도안 (최상급),에르킨의 표식 도안 (최상급),에르킨의 표식 도안 (최상급)입니다.,,Material,Material_Craft,9999,100,200,TRUE,FALSE,-,-,FALSE,-,-,-,-,-,-,-
50,네루의 표식 도안 (상급),네루의 표식 도안 (상급),네루의 표식 도안 (상급)입니다.,,Material,Material_Craft,9999,100,200,TRUE,FALSE,-,-,FALSE,-,-,-,-,-,-,-
51,네루의 표식 도안 (최상급),네루의 표식 도안 (최상급),네루의 표식 도안 (최상급)입니다.,,Material,Material_Craft,9999,100,200,TRUE,FALSE,-,-,FALSE,-,-,-,-,-,-,-
52,크세르의 표식 도안 (상급),크세르의 표식 도안 (상급),크세르의 표식 도안 (상급)입니다.,,Material,Material_Craft,9999,100,200,TRUE,FALSE,-,-,FALSE,-,-,-,-,-,-,-
53,크세르의 표식 도안 (최상급),크세르의 표식 도안 (최상급),크세르의 표식 도안 (최상급)입니다.,,Material,Material_Craft,9999,100,200,TRUE,FALSE,-,-,FALSE,-,-,-,-,-,-,-
54,구리 단검,구리 단검,구리 단검입니다.,,Equipment,Equip_Weapon,1,100,200,TRUE,TRUE,틀 - 단검,구리 광석,TRUE,-,5,5,0,1,0,1
55,구리 단도,구리 단도,구리 단도입니다.,,Equipment,Equip_Weapon,1,100,200,TRUE,TRUE,틀 - 단도,구리 광석,TRUE,-,4,10,0,1,0,1
56,구리 도끼,구리 도끼,구리 도끼입니다.,,Equipment,Equip_Weapon,1,100,200,TRUE,TRUE,틀 - 도끼,구리 광석,TRUE,-,15,5,0,1,0,1
57,구리 창,구리 창,구리 창입니다.,,Equipment,Equip_Weapon,1,100,200,TRUE,TRUE,틀 - 창,구리 광석,TRUE,-,5,15,0,1,0,1
58,구리 장검,구리 장검,구리 장검입니다.,,Equipment,Equip_Weapon,1,100,200,TRUE,TRUE,틀 - 장검,구리 광석,TRUE,-,20,10,0,1,0,1
59,구리 장도,구리 장도,구리 장도입니다.,,Equipment,Equip_Weapon,1,100,200,TRUE,TRUE,틀 - 장도,구리 광석,TRUE,-,23,5,0,1,0,1
60,철 단검,철 단검,철 단검입니다.,,Equipment,Equip_Weapon,1,100,200,TRUE,TRUE,틀 - 단검,철 광석,TRUE,-,23,5,0,1,0,1
61,철 단도,철 단도,철 단도입니다.,,Equipment,Equip_Weapon,1,100,200,TRUE,TRUE,틀 - 단도,철 광석,TRUE,-,23,5,0,1,0,1
62,철 도끼,철 도끼,철 도끼입니다.,,Equipment,Equip_Weapon,1,100,200,TRUE,TRUE,틀 - 도끼,철 광석,TRUE,-,23,5,0,1,0,1
63,철 창,철 창,철 창입니다.,,Equipment,Equip_Weapon,1,100,200,TRUE,TRUE,틀 - 창,철 광석,TRUE,-,23,5,0,1,0,1
64,철 장검,철 장검,철 장검입니다.,,Equipment,Equip_Weapon,1,100,200,TRUE,TRUE,틀 - 장검,철 광석,TRUE,-,23,5,0,1,0,1
65,철 장도,철 장도,철 장도입니다.,,Equipment,Equip_Weapon,1,100,200,TRUE,TRUE,틀 - 장도,철 광석,TRUE,-,23,5,0,1,0,1
66,은 단검,은 단검,은 단검입니다.,,Equipment,Equip_Weapon,1,100,200,TRUE,TRUE,틀 - 단검,은 광석,TRUE,-,23,5,0,1,0,1
67,은 단도,은 단도,은 단도입니다.,,Equipment,Equip_Weapon,1,100,200,TRUE,TRUE,틀 - 단도,은 광석,TRUE,-,23,5,0,1,0,1
68,은 도끼,은 도끼,은 도끼입니다.,,Equipment,Equip_Weapon,1,100,200,TRUE,TRUE,틀 - 도끼,은 광석,TRUE,-,23,5,0,1,0,1
69,은 창,은 창,은 창입니다.,,Equipment,Equip_Weapon,1,100,200,TRUE,TRUE,틀 - 창,은 광석,TRUE,-,23,5,0,1,0,1
70,은 장검,은 장검,은 장검입니다.,,Equipment,Equip_Weapon,1,100,200,TRUE,TRUE,틀 - 장검,은 광석,TRUE,-,23,5,0,1,0,1
71,은 장도,은 장도,은 장도입니다.,,Equipment,Equip_Weapon,1,100,200,TRUE,TRUE,틀 - 장도,은 광석,TRUE,-,23,5,0,1,0,1
72,황금 단검,황금 단검,황금 단검입니다.,,Equipment,Equip_Weapon,1,100,200,TRUE,TRUE,틀 - 단검,금 광석,TRUE,-,23,5,0,1,0,1
73,황금 단도,황금 단도,황금 단도입니다.,,Equipment,Equip_Weapon,1,100,200,TRUE,TRUE,틀 - 단도,금 광석,TRUE,-,23,5,0,1,0,1
74,황금 도끼,황금 도끼,황금 도끼입니다.,,Equipment,Equip_Weapon,1,100,200,TRUE,TRUE,틀 - 도끼,금 광석,TRUE,-,23,5,0,1,0,1
75,황금 창,황금 창,황금 창입니다.,,Equipment,Equip_Weapon,1,100,200,TRUE,TRUE,틀 - 창,금 광석,TRUE,-,23,5,0,1,0,1
76,황금 장검,황금 장검,황금 장검입니다.,,Equipment,Equip_Weapon,1,100,200,TRUE,TRUE,틀 - 장검,금 광석,TRUE,-,23,5,0,1,0,1
77,황금 장도,황금 장도,황금 장도입니다.,,Equipment,Equip_Weapon,1,100,200,TRUE,TRUE,틀 - 장도,금 광석,TRUE,-,23,5,0,1,0,1
78,구리 장갑,구리 장갑,구리 장갑입니다.,,Equipment,Equip_Glove,1,100,200,TRUE,TRUE,틀 - 장갑,구리 광석,TRUE,-,23,5,0,1,0,1
79,구리 신발,구리 신발,구리 신발입니다.,,Equipment,Equip_Shoes,1,100,200,TRUE,TRUE,틀 - 신발,구리 광석,TRUE,-,23,5,0,1,0,1
80,구리 투구,구리 투구,구리 투구입니다.,,Equipment,Equip_Helmet,1,100,200,TRUE,TRUE,틀 - 투구,구리 광석,TRUE,-,23,5,0,1,0,1
81,구리 각반,구리 각반,구리 각반입니다.,,Equipment,Equip_Leggings,1,100,200,TRUE,TRUE,틀 - 각반,구리 광석,TRUE,-,23,5,0,1,0,1
82,구리 갑옷,구리 갑옷,구리 갑옷입니다.,,Equipment,Equip_Armour,1,100,200,TRUE,TRUE,틀 - 갑옷,구리 광석,TRUE,-,23,5,0,1,0,1
83,철 장갑,철 장갑,철 장갑입니다.,,Equipment,Equip_Glove,1,100,200,TRUE,TRUE,틀 - 장갑,철 광석,TRUE,-,23,5,0,1,0,1
84,철 신발,철 신발,철 신발입니다.,,Equipment,Equip_Shoes,1,100,200,TRUE,TRUE,틀 - 신발,철 광석,TRUE,-,23,5,0,1,0,1
85,철 투구,철 투구,철 투구입니다.,,Equipment,Equip_Helmet,1,100,200,TRUE,TRUE,틀 - 투구,철 광석,TRUE,-,23,5,0,1,0,1
86,철 각반,철 각반,철 각반입니다.,,Equipment,Equip_Leggings,1,100,200,TRUE,TRUE,틀 - 각반,철 광석,TRUE,-,23,5,0,1,0,1
87,철 갑옷,철 갑옷,철 갑옷입니다.,,Equipment,Equip_Armour,1,100,200,TRUE,TRUE,틀 - 갑옷,철 광석,TRUE,-,23,5,0,1,0,1
88,은 장갑,은 장갑,은 장갑입니다.,,Equipment,Equip_Glove,1,100,200,TRUE,TRUE,틀 - 장갑,은 광석,TRUE,-,23,5,0,1,0,1
89,은 신발,은 신발,은 신발입니다.,,Equipment,Equip_Shoes,1,100,200,TRUE,TRUE,틀 - 신발,은 광석,TRUE,-,23,5,0,1,0,1
90,은 투구,은 투구,은 투구입니다.,,Equipment,Equip_Helmet,1,100,200,TRUE,TRUE,틀 - 투구,은 광석,TRUE,-,23,5,0,1,0,1
91,은 각반,은 각반,은 각반입니다.,,Equipment,Equip_Leggings,1,100,200,TRUE,TRUE,틀 - 각반,은 광석,TRUE,-,23,5,0,1,0,1
92,은 갑옷,은 갑옷,은 갑옷입니다.,,Equipment,Equip_Armour,1,100,200,TRUE,TRUE,틀 - 갑옷,은 광석,TRUE,-,23,5,0,1,0,1
93,황금 장갑,황금 장갑,황금 장갑입니다.,,Equipment,Equip_Glove,1,100,200,TRUE,TRUE,틀 - 장갑,금 광석,TRUE,-,23,5,0,1,0,1
94,황금 신발,황금 신발,황금 신발입니다.,,Equipment,Equip_Shoes,1,100,200,TRUE,TRUE,틀 - 신발,금 광석,TRUE,-,23,5,0,1,0,1
95,황금 투구,황금 투구,황금 투구입니다.,,Equipment,Equip_Helmet,1,100,200,TRUE,TRUE,틀 - 투구,금 광석,TRUE,-,23,5,0,1,0,1
96,황금 각반,황금 각반,황금 각반입니다.,,Equipment,Equip_Leggings,1,100,200,TRUE,TRUE,틀 - 각반,금 광석,TRUE,-,23,5,0,1,0,1
97,황금 갑옷,황금 갑옷,황금 갑옷입니다.,,Equipment,Equip_Armour,1,100,200,TRUE,TRUE,틀 - 갑옷,금 광석,TRUE,-,23,5,0,1,0,1
