%YAML 1.1
%TAG !u! tag:unity3d.com,2011:
--- !u!114 &11400000
MonoBehaviour:
  m_ObjectHideFlags: 0
  m_PrefabParentObject: {fileID: 0}
  m_PrefabInternal: {fileID: 0}
  m_GameObject: {fileID: 0}
  m_Enabled: 1
  m_EditorHideFlags: 0
  m_Script: {fileID: 11500000, guid: f0f3cea0e7fd12344801b974a5a43d83, type: 3}
  m_Name: 17
  m_EditorClassIdentifier: 
  _id: 17
  _name: 
  _description: 
  status:
    _maxHealth: 100
    _damage: 10
    _defence: 0
    _attackSpeed: 1
    _criticalProbability: 0
    _criticalMuliplier: 1
