%YAML 1.1
%TAG !u! tag:unity3d.com,2011:
--- !u!114 &11400000
MonoBehaviour:
  m_ObjectHideFlags: 0
  m_PrefabParentObject: {fileID: 0}
  m_PrefabInternal: {fileID: 0}
  m_GameObject: {fileID: 0}
  m_Enabled: 1
  m_EditorHideFlags: 0
  m_Script: {fileID: 11500000, guid: 9019d36d333f5654d84d225110cfb3f5, type: 3}
  m_Name: "\uB124\uB8E8\uC758 \uD45C\uC2DD \uB3C4\uC548 (\uC0C1\uAE09)"
  m_EditorClassIdentifier: 
  _id: 50
  _name: "\uB124\uB8E8\uC758 \uD45C\uC2DD \uB3C4\uC548 (\uC0C1\uAE09)"
  _description: "\uB124\uB8E8\uC758 \uD45C\uC2DD \uB3C4\uC548 (\uC0C1\uAE09)\uC785\uB2C8\uB2E4."
  _icon: {fileID: 21300000, guid: cf9d40eab10b44e4ca23649f88b576f8, type: 3}
  _itemType: 1
  _itemType_Refined: 1
  _maxStackSize: 9999
  _buyPrice: 100
  _sellPrice: 200
  _isSellable: 1
  _canProduce: 0
  producable:
    _frame: {fileID: 0}
    _ore: {fileID: 0}
  _canFight: 0
  statusGenerator:
    _maxHealth: 0
    _damage: 0
    _defence: 0
    _attackSpeed: 0
    _criticalProbability: 0
    _criticalMultiplier: 0
  affixList: []
