%YAML 1.1
%TAG !u! tag:unity3d.com,2011:
--- !u!114 &11400000
MonoBehaviour:
  m_ObjectHideFlags: 0
  m_PrefabParentObject: {fileID: 0}
  m_PrefabInternal: {fileID: 0}
  m_GameObject: {fileID: 0}
  m_Enabled: 1
  m_EditorHideFlags: 0
  m_Script: {fileID: 11500000, guid: 9019d36d333f5654d84d225110cfb3f5, type: 3}
  m_Name: "\uC740 \uB2E8\uAC80"
  m_EditorClassIdentifier: 
  _id: 66
  _name: "\uC740 \uB2E8\uAC80"
  _description: "\uC740 \uB2E8\uAC80\uC785\uB2C8\uB2E4."
  _icon: {fileID: 21300000, guid: cf9d40eab10b44e4ca23649f88b576f8, type: 3}
  _itemType: 0
  _itemType_Refined: 2
  _maxStackSize: 1
  _buyPrice: 100
  _sellPrice: 200
  _isSellable: 1
  _canProduce: 1
  producable:
    _frame: {fileID: 11400000, guid: 684be23c7fdf3964a9faa7ab0c6ab5a7, type: 2}
    _ore: {fileID: 11400000, guid: 55bfc78c4e5a3e64b9a8820e77bf82c0, type: 2}
  _canFight: 1
  statusGenerator:
    _maxHealth: 23
    _damage: 5
    _defence: 0
    _attackSpeed: 1
    _criticalProbability: 0
    _criticalMultiplier: 1
  affixList: []
