%YAML 1.1
%TAG !u! tag:unity3d.com,2011:
--- !u!114 &11400000
MonoBehaviour:
  m_ObjectHideFlags: 0
  m_PrefabParentObject: {fileID: 0}
  m_PrefabInternal: {fileID: 0}
  m_GameObject: {fileID: 0}
  m_Enabled: 1
  m_EditorHideFlags: 0
  m_Script: {fileID: 11500000, guid: 9019d36d333f5654d84d225110cfb3f5, type: 3}
  m_Name: "\uCCA0 \uAC11\uC637"
  m_EditorClassIdentifier: 
  _id: 87
  _name: "\uCCA0 \uAC11\uC637"
  _description: "\uCCA0 \uAC11\uC637\uC785\uB2C8\uB2E4."
  _icon: {fileID: 21300000, guid: cf9d40eab10b44e4ca23649f88b576f8, type: 3}
  _itemType: 0
  _itemType_Refined: 7
  _maxStackSize: 1
  _buyPrice: 100
  _sellPrice: 200
  _isSellable: 1
  _canProduce: 1
  producable:
    _frame: {fileID: 11400000, guid: 196ef9d884a8f9b41a493aee5f4ee28b, type: 2}
    _ore: {fileID: 11400000, guid: 58bd099e4059cf94a95dfc5bc3004f04, type: 2}
  _canFight: 1
  statusGenerator:
    _maxHealth: 23
    _damage: 5
    _defence: 0
    _attackSpeed: 1
    _criticalProbability: 0
    _criticalMultiplier: 1
  affixList: []
