%YAML 1.1
%TAG !u! tag:unity3d.com,2011:
--- !u!114 &11400000
MonoBehaviour:
  m_ObjectHideFlags: 0
  m_PrefabParentObject: {fileID: 0}
  m_PrefabInternal: {fileID: 0}
  m_GameObject: {fileID: 0}
  m_Enabled: 1
  m_EditorHideFlags: 0
  m_Script: {fileID: 11500000, guid: 9fb7d8cda90a81540bc080e8e6afeec1, type: 3}
  m_Name: "\uC740 \uC7A5\uAC80"
  m_EditorClassIdentifier: 
  _id: 16
  _name: "\uC740 \uC7A5\uAC80"
  _description: 
  _item:
    itemDefinition: {fileID: 11400000, guid: 017db28e7ddfe7947b1d92926e2813b8, type: 2}
    amount: 1
    isEquip: 0
  _orderType: 0
