%YAML 1.1
%TAG !u! tag:unity3d.com,2011:
--- !u!114 &11400000
MonoBehaviour:
  m_ObjectHideFlags: 0
  m_PrefabParentObject: {fileID: 0}
  m_PrefabInternal: {fileID: 0}
  m_GameObject: {fileID: 0}
  m_Enabled: 1
  m_EditorHideFlags: 0
  m_Script: {fileID: 11500000, guid: 9fb7d8cda90a81540bc080e8e6afeec1, type: 3}
  m_Name: "\uD669\uAE08 \uB2E8\uAC80"
  m_EditorClassIdentifier: 
  _id: 18
  _name: "\uD669\uAE08 \uB2E8\uAC80"
  _description: 
  _item:
    itemDefinition: {fileID: 11400000, guid: b6f06a5ed00666e46bfefd40355712c9, type: 2}
    amount: 1
    isEquip: 0
  _orderType: 0
