%YAML 1.1
%TAG !u! tag:unity3d.com,2011:
--- !u!114 &11400000
MonoBehaviour:
  m_ObjectHideFlags: 0
  m_PrefabParentObject: {fileID: 0}
  m_PrefabInternal: {fileID: 0}
  m_GameObject: {fileID: 0}
  m_Enabled: 1
  m_EditorHideFlags: 0
  m_Script: {fileID: 11500000, guid: 445b4a7843f3c0a42838754ed2f5040b, type: 3}
  m_Name: "\uD2C0 - \uC7A5\uB3C4"
  m_EditorClassIdentifier: 
  _id: 5
  _name: "\uD2C0 - \uC7A5\uB3C4"
